<?xml version="1.0" encoding="iso-8859-1"?>
<svg xmlns="http://www.w3.org/2000/svg" xmlns:xlink="http://www.w3.org/1999/xlink" id="Capa_1" x="0px" y="0px" style="enable-background:new 0 0 42 42" version="1.1" viewBox="0 0 42 42" xml:space="preserve">
  <line x1="42" x2="0" y1="21" y2="21" style="fill:none;stroke:red;stroke-width:2;stroke-miterlimit:10"/>
</svg>
